<?xml version="1.0" encoding="UTF-8" standalone="no"?>
<svg
   xmlns:dc="http://purl.org/dc/elements/1.1/"
   xmlns:cc="http://creativecommons.org/ns#"
   xmlns:rdf="http://www.w3.org/1999/02/22-rdf-syntax-ns#"
   xmlns:svg="http://www.w3.org/2000/svg"
   xmlns="http://www.w3.org/2000/svg"
   xmlns:sodipodi="http://sodipodi.sourceforge.net/DTD/sodipodi-0.dtd"
   xmlns:inkscape="http://www.inkscape.org/namespaces/inkscape"
   enable-background="new 0 0 15.642 15.642"
   viewBox="0 0 16 16"
   version="1.1"
   id="svg4"
   sodipodi:docname="menu_btn.svg"
   width="16"
   height="16"
   inkscape:version="0.92.5 (2060ec1f9f, 2020-04-08)">
  <metadata
     id="metadata10">
    <rdf:RDF>
      <cc:Work
         rdf:about="">
        <dc:format>image/svg+xml</dc:format>
        <dc:type
           rdf:resource="http://purl.org/dc/dcmitype/StillImage" />
        <dc:title />
      </cc:Work>
    </rdf:RDF>
  </metadata>
  <defs
     id="defs8" />
  <sodipodi:namedview
     pagecolor="#ffffff"
     bordercolor="#666666"
     borderopacity="1"
     objecttolerance="10"
     gridtolerance="10"
     guidetolerance="10"
     inkscape:pageopacity="0"
     inkscape:pageshadow="2"
     inkscape:window-width="1297"
     inkscape:window-height="1077"
     id="namedview6"
     showgrid="false"
     inkscape:zoom="22.627417"
     inkscape:cx="9.1683043"
     inkscape:cy="7.8579529"
     inkscape:window-x="992"
     inkscape:window-y="297"
     inkscape:window-maximized="0"
     inkscape:current-layer="svg4"
     inkscape:snap-bbox="true"
     inkscape:snap-smooth-nodes="true"
     inkscape:snap-page="true"
     inkscape:snap-nodes="true"
     inkscape:bbox-nodes="true" />
  <path
     style="fill:#000000;stroke-width:1"
     d="M 0.76757819,2 C 0.34377059,2 0,2.343771 0,2.767578 0,3.191385 0.34377059,3.535156 0.76757819,3.535156 H 10.228518 11.763674 15.23437 C 15.446273,3.534433 15.638479,3.449406 15.777338,3.310547 15.916196,3.171689 16.000721,2.979485 15.999995,2.767578 15.999995,2.343771 15.658178,2 15.23437,2 h -3.470696 -1.535156 z"
     id="path2"
     inkscape:connector-curvature="0"
     sodipodi:nodetypes="ssscccscsccs" />
  <path
     sodipodi:nodetypes="ssscccscsccs"
     inkscape:connector-curvature="0"
     id="path823"
     d="M 0.76757837,7.2324219 C 0.34377077,7.2324219 1.8031624e-7,7.5761924 1.8031624e-7,8 1.8031624e-7,8.4238074 0.34377077,8.7675781 0.76757837,8.7675781 h 9.46093963 1.535156 3.470696 c 0.211903,-7.234e-4 0.404109,-0.08575 0.542968,-0.2246094 C 15.916196,8.4041105 16.000721,8.2119065 15.999995,8 c 0,-0.4238072 -0.341817,-0.7675781 -0.765625,-0.7675781 h -3.470696 -1.535156 z"
     style="fill:#000000;stroke-width:1" />
  <path
     style="fill:#000000;stroke-width:1"
     d="M 0.76757837,12.464844 C 0.34377077,12.464844 1.8031624e-7,12.808614 1.8031624e-7,13.232422 1.8031624e-7,13.656229 0.34377077,14 0.76757837,14 h 9.46093963 1.535156 3.470696 c 0.211903,-7.23e-4 0.404109,-0.08575 0.542968,-0.224609 0.138858,-0.138859 0.223383,-0.331063 0.222657,-0.542969 0,-0.423807 -0.341817,-0.767578 -0.765625,-0.767578 h -3.470696 -1.535156 z"
     id="path825"
     inkscape:connector-curvature="0"
     sodipodi:nodetypes="ssscccscsccs" />
</svg>
